<?xml version="1.0" encoding="UTF-8" standalone="no"?>
<!DOCTYPE svg PUBLIC "-//W3C//DTD SVG 1.1//EN"
 "http://www.w3.org/Graphics/SVG/1.1/DTD/svg11.dtd">
<!-- Generated by graphviz version 2.40.1 (20161225.0304)
 -->
<!-- Title: %0 Pages: 1 -->
<svg width="1690pt" height="1300pt"
 viewBox="0.00 0.00 1690.15 1300.37" xmlns="http://www.w3.org/2000/svg" xmlns:xlink="http://www.w3.org/1999/xlink">
<g id="graph0" class="graph" transform="scale(1 1) rotate(0) translate(4 1296.3666)">
<title>%0</title>
<polygon fill="#ffffff" stroke="transparent" points="-4,4 -4,-1296.3666 1686.1525,-1296.3666 1686.1525,4 -4,4"/>
<!-- a -->
<g id="node1" class="node">
<title>a</title>
<g id="a_node1"><a xlink:href="https://www.vangoghmuseum.nl/en/collection/s0022V1962" xlink:title="porter attention, considérer">
<polygon fill="none" stroke="#000000" points="1430.0123,-674.3546 1108.9983,-674.3546 1026.4181,-638.3546 1347.4321,-638.3546 1430.0123,-674.3546"/>
<text text-anchor="middle" x="1228.2152" y="-652.1546" font-family="Times,serif" font-size="14.00" fill="#000000">porter attention, considérer</text>
</a>
</g>
</g>
<!-- b -->
<g id="node2" class="node">
<title>b</title>
<polygon fill="none" stroke="#000000" points="745.789,-896.6723 424.775,-896.6723 342.1948,-860.6723 663.2088,-860.6723 745.789,-896.6723"/>
<text text-anchor="middle" x="543.9919" y="-874.4723" font-family="Times,serif" font-size="14.00" fill="#000000">communication</text>
</g>
<!-- a&#45;&#45;b -->
<g id="edge1" class="edge">
<title>a&#45;&#45;b</title>
<path fill="none" stroke="#000000" d="M1172.8019,-674.3595C1044.4306,-716.0699 727.8536,-818.932 599.4442,-860.6547"/>
</g>
<!-- c -->
<g id="node3" class="node">
<title>c</title>
<polygon fill="none" stroke="#000000" points="966.8652,-1034.0721 772.3652,-1016.0721 966.8652,-998.0721 1161.3652,-1016.0721 966.8652,-1034.0721"/>
<text text-anchor="middle" x="966.8652" y="-1011.8721" font-family="Times,serif" font-size="14.00" fill="#000000">commun</text>
</g>
<!-- a&#45;&#45;c -->
<g id="edge2" class="edge">
<title>a&#45;&#45;c</title>
<path fill="none" stroke="#000000" d="M1214.8955,-674.6876C1169.751,-736.8237 1022.9255,-938.9117 979.2373,-999.0432"/>
</g>
<!-- d -->
<g id="node4" class="node">
<title>d</title>
<polygon fill="none" stroke="#000000" points="296.6638,-312.3553 102.1638,-294.3553 296.6638,-276.3553 491.1638,-294.3553 296.6638,-312.3553"/>
<text text-anchor="middle" x="296.6638" y="-290.1553" font-family="Times,serif" font-size="14.00" fill="#000000">mémoire</text>
</g>
<!-- a&#45;&#45;d -->
<g id="edge3" class="edge">
<title>a&#45;&#45;d</title>
<path fill="none" stroke="#000000" d="M1181.7007,-638.2792C1019.5795,-575.2792 481.3122,-366.1094 334.1375,-308.9175"/>
</g>
<!-- e -->
<g id="node5" class="node">
<title>e</title>
<polygon fill="none" stroke="#000000" points="389,-575.0432 194.5,-587.4809 0,-575.0432 74.2924,-554.9186 314.7076,-554.9186 389,-575.0432"/>
<text text-anchor="middle" x="194.5" y="-565.2809" font-family="Times,serif" font-size="14.00" fill="#000000">transmission</text>
</g>
<!-- a&#45;&#45;e -->
<g id="edge4" class="edge">
<title>a&#45;&#45;e</title>
<path fill="none" stroke="#000000" d="M1029.2105,-639.6302C818.3351,-621.9082 492.0687,-594.4887 316.4187,-579.727"/>
</g>
<!-- f -->
<g id="node6" class="node">
<title>f</title>
<polygon fill="none" stroke="#000000" points="694.2439,-120.6162 499.7439,-133.0539 305.2439,-120.6162 379.5363,-100.4916 619.9515,-100.4916 694.2439,-120.6162"/>
<text text-anchor="middle" x="499.7439" y="-110.8539" font-family="Times,serif" font-size="14.00" fill="#000000">conversation</text>
</g>
<!-- a&#45;&#45;f -->
<g id="edge5" class="edge">
<title>a&#45;&#45;f</title>
<path fill="none" stroke="#000000" d="M1203.9776,-638.3446C1092.5128,-555.5191 629.9988,-211.8417 522.2501,-131.7775"/>
</g>
<!-- g -->
<g id="node7" class="node">
<title>g</title>
<polygon fill="none" stroke="#000000" points="1134.9251,-23.5623 940.4251,-36 745.9251,-23.5623 820.2175,-3.4377 1060.6327,-3.4377 1134.9251,-23.5623"/>
<text text-anchor="middle" x="940.4251" y="-13.8" font-family="Times,serif" font-size="14.00" fill="#000000">temporalités</text>
</g>
<!-- a&#45;&#45;g -->
<g id="edge6" class="edge">
<title>a&#45;&#45;g</title>
<path fill="none" stroke="#000000" d="M1220.0658,-638.2782C1178.3999,-545.858 989.5415,-126.9465 948.3673,-35.6169"/>
</g>
<!-- h -->
<g id="node8" class="node">
<title>h</title>
<polygon fill="none" stroke="#000000" points="1602.8307,-320.1515 1217.8307,-320.1515 1213.8307,-316.1515 1213.8307,-284.1515 1598.8307,-284.1515 1602.8307,-288.1515 1602.8307,-320.1515"/>
<polyline fill="none" stroke="#000000" points="1598.8307,-316.1515 1213.8307,-316.1515 "/>
<polyline fill="none" stroke="#000000" points="1598.8307,-316.1515 1598.8307,-284.1515 "/>
<polyline fill="none" stroke="#000000" points="1598.8307,-316.1515 1602.8307,-320.1515 "/>
<text text-anchor="middle" x="1408.3307" y="-297.9515" font-family="Times,serif" font-size="14.00" fill="#000000">contemplation</text>
</g>
<!-- a&#45;&#45;h -->
<g id="edge7" class="edge">
<title>a&#45;&#45;h</title>
<path fill="none" stroke="#000000" d="M1237.3948,-638.3027C1268.2921,-577.542 1368.2998,-380.8735 1399.1696,-320.1671"/>
</g>
<!-- i -->
<g id="node9" class="node">
<title>i</title>
<polygon fill="none" stroke="#000000" points="1394.5399,-113.3993 1009.5399,-113.3993 1005.5399,-109.3993 1005.5399,-77.3993 1390.5399,-77.3993 1394.5399,-81.3993 1394.5399,-113.3993"/>
<polyline fill="none" stroke="#000000" points="1390.5399,-109.3993 1005.5399,-109.3993 "/>
<polyline fill="none" stroke="#000000" points="1390.5399,-109.3993 1390.5399,-77.3993 "/>
<polyline fill="none" stroke="#000000" points="1390.5399,-109.3993 1394.5399,-113.3993 "/>
<text text-anchor="middle" x="1200.0399" y="-91.1993" font-family="Times,serif" font-size="14.00" fill="#000000">sensible</text>
</g>
<!-- a&#45;&#45;i -->
<g id="edge8" class="edge">
<title>a&#45;&#45;i</title>
<path fill="none" stroke="#000000" d="M1227.3097,-638.326C1223.071,-553.9369 1205.2179,-198.49 1200.9562,-113.6427"/>
</g>
<!-- j -->
<g id="node10" class="node">
<title>j</title>
<polygon fill="none" stroke="#000000" points="738.4919,-452.037 353.4919,-452.037 349.4919,-448.037 349.4919,-416.037 734.4919,-416.037 738.4919,-420.037 738.4919,-452.037"/>
<polyline fill="none" stroke="#000000" points="734.4919,-448.037 349.4919,-448.037 "/>
<polyline fill="none" stroke="#000000" points="734.4919,-448.037 734.4919,-416.037 "/>
<polyline fill="none" stroke="#000000" points="734.4919,-448.037 738.4919,-452.037 "/>
<text text-anchor="middle" x="543.9919" y="-429.837" font-family="Times,serif" font-size="14.00" fill="#000000">proximité</text>
</g>
<!-- a&#45;&#45;j -->
<g id="edge9" class="edge">
<title>a&#45;&#45;j</title>
<path fill="none" stroke="#000000" d="M1172.8019,-638.3498C1044.4306,-596.6394 727.8536,-493.7773 599.4442,-452.0546"/>
</g>
<!-- k -->
<g id="node11" class="node">
<title>k</title>
<polygon fill="none" stroke="#000000" points="1682.1525,-579.1854 1297.1525,-579.1854 1293.1525,-575.1854 1293.1525,-543.1854 1678.1525,-543.1854 1682.1525,-547.1854 1682.1525,-579.1854"/>
<polyline fill="none" stroke="#000000" points="1678.1525,-575.1854 1293.1525,-575.1854 "/>
<polyline fill="none" stroke="#000000" points="1678.1525,-575.1854 1678.1525,-543.1854 "/>
<polyline fill="none" stroke="#000000" points="1678.1525,-575.1854 1682.1525,-579.1854 "/>
<text text-anchor="middle" x="1487.6525" y="-556.9854" font-family="Times,serif" font-size="14.00" fill="#000000">arrêt sur image</text>
</g>
<!-- a&#45;&#45;k -->
<g id="edge10" class="edge">
<title>a&#45;&#45;k</title>
<path fill="none" stroke="#000000" d="M1277.3184,-638.3421C1323.4454,-621.4214 1392.1044,-596.2353 1438.3094,-579.2859"/>
</g>
<!-- l -->
<g id="node12" class="node">
<title>l</title>
<polygon fill="none" stroke="#000000" points="1161.3652,-314.6372 776.3652,-314.6372 772.3652,-310.6372 772.3652,-278.6372 1157.3652,-278.6372 1161.3652,-282.6372 1161.3652,-314.6372"/>
<polyline fill="none" stroke="#000000" points="1157.3652,-310.6372 772.3652,-310.6372 "/>
<polyline fill="none" stroke="#000000" points="1157.3652,-310.6372 1157.3652,-278.6372 "/>
<polyline fill="none" stroke="#000000" points="1157.3652,-310.6372 1161.3652,-314.6372 "/>
<text text-anchor="middle" x="966.8652" y="-292.4372" font-family="Times,serif" font-size="14.00" fill="#000000">lien social</text>
</g>
<!-- a&#45;&#45;l -->
<g id="edge11" class="edge">
<title>a&#45;&#45;l</title>
<path fill="none" stroke="#000000" d="M1214.8955,-638.0217C1170.063,-576.3151 1024.9505,-376.5848 980.158,-314.9333"/>
</g>
<!-- n -->
<g id="node13" class="node">
<title>n</title>
<polygon fill="none" stroke="#000000" points="1588.3683,-1020.574 1203.3683,-1020.574 1199.3683,-1016.574 1199.3683,-984.574 1584.3683,-984.574 1588.3683,-988.574 1588.3683,-1020.574"/>
<polyline fill="none" stroke="#000000" points="1584.3683,-1016.574 1199.3683,-1016.574 "/>
<polyline fill="none" stroke="#000000" points="1584.3683,-1016.574 1584.3683,-984.574 "/>
<polyline fill="none" stroke="#000000" points="1584.3683,-1016.574 1588.3683,-1020.574 "/>
<text text-anchor="middle" x="1393.8683" y="-998.374" font-family="Times,serif" font-size="14.00" fill="#000000">valeur</text>
</g>
<!-- a&#45;&#45;n -->
<g id="edge12" class="edge">
<title>a&#45;&#45;n</title>
<path fill="none" stroke="#000000" d="M1236.8882,-674.4814C1265.4472,-734.1704 1356.3571,-924.1746 1385.0813,-984.2089"/>
</g>
<!-- o -->
<g id="node14" class="node">
<title>o</title>
<polygon fill="none" stroke="#000000" points="1228.1626,-1292.3666 843.1626,-1292.3666 839.1626,-1288.3666 839.1626,-1256.3666 1224.1626,-1256.3666 1228.1626,-1260.3666 1228.1626,-1292.3666"/>
<polyline fill="none" stroke="#000000" points="1224.1626,-1288.3666 839.1626,-1288.3666 "/>
<polyline fill="none" stroke="#000000" points="1224.1626,-1288.3666 1224.1626,-1256.3666 "/>
<polyline fill="none" stroke="#000000" points="1224.1626,-1288.3666 1228.1626,-1292.3666 "/>
<text text-anchor="middle" x="1033.6626" y="-1270.1666" font-family="Times,serif" font-size="14.00" fill="#000000">esthétique</text>
</g>
<!-- a&#45;&#45;o -->
<g id="edge13" class="edge">
<title>a&#45;&#45;o</title>
<path fill="none" stroke="#000000" d="M1222.498,-674.5159C1194.034,-764.9338 1067.8448,-1165.7842 1039.3801,-1256.2044"/>
</g>
<!-- p -->
<g id="node15" class="node">
<title>p</title>
<polygon fill="none" stroke="#000000" points="777.9827,-1261.4253 392.9827,-1261.4253 388.9827,-1257.4253 388.9827,-1225.4253 773.9827,-1225.4253 777.9827,-1229.4253 777.9827,-1261.4253"/>
<polyline fill="none" stroke="#000000" points="773.9827,-1257.4253 388.9827,-1257.4253 "/>
<polyline fill="none" stroke="#000000" points="773.9827,-1257.4253 773.9827,-1225.4253 "/>
<polyline fill="none" stroke="#000000" points="773.9827,-1257.4253 777.9827,-1261.4253 "/>
<text text-anchor="middle" x="583.4827" y="-1239.2253" font-family="Times,serif" font-size="14.00" fill="#000000">politique</text>
</g>
<!-- a&#45;&#45;p -->
<g id="edge14" class="edge">
<title>a&#45;&#45;p</title>
<path fill="none" stroke="#000000" d="M1208.2126,-674.5683C1112.1415,-762.0472 698.8077,-1138.4144 603.252,-1225.4241"/>
</g>
<!-- q -->
<g id="node16" class="node">
<title>q</title>
<polygon fill="none" stroke="#000000" points="458.3496,-942.9067 73.3496,-942.9067 69.3496,-938.9067 69.3496,-906.9067 454.3496,-906.9067 458.3496,-910.9067 458.3496,-942.9067"/>
<polyline fill="none" stroke="#000000" points="454.3496,-938.9067 69.3496,-938.9067 "/>
<polyline fill="none" stroke="#000000" points="454.3496,-938.9067 454.3496,-906.9067 "/>
<polyline fill="none" stroke="#000000" points="454.3496,-938.9067 458.3496,-942.9067 "/>
<text text-anchor="middle" x="263.8496" y="-920.7067" font-family="Times,serif" font-size="14.00" fill="#000000">poétique</text>
</g>
<!-- a&#45;&#45;q -->
<g id="edge15" class="edge">
<title>a&#45;&#45;q</title>
<path fill="none" stroke="#000000" d="M1163.443,-674.3921C987.8676,-723.2855 504.2722,-857.955 328.6564,-906.8596"/>
</g>
<!-- b&#45;&#45;c -->
<g id="edge16" class="edge">
<title>b&#45;&#45;c</title>
<path fill="none" stroke="#000000" d="M599.7101,-896.7762C685.0464,-924.5036 846.3221,-976.9053 923.5356,-1001.9935"/>
</g>
<!-- d&#45;&#45;e -->
<g id="edge17" class="edge">
<title>d&#45;&#45;e</title>
<path fill="none" stroke="#000000" d="M290.1176,-311.9842C271.3124,-362.6263 217.3688,-507.8956 199.9761,-554.7338"/>
</g>
<!-- h&#45;&#45;i -->
<g id="edge18" class="edge">
<title>h&#45;&#45;i</title>
<path fill="none" stroke="#000000" d="M1389.8462,-283.8036C1350.2199,-244.47 1257.5072,-152.442 1218.1855,-113.4108"/>
</g>
<!-- l&#45;&#45;c -->
<g id="edge20" class="edge">
<title>l&#45;&#45;c</title>
<path fill="none" stroke="#000000" d="M966.8652,-314.7809C966.8652,-414.809 966.8652,-898.0746 966.8652,-997.9774"/>
</g>
<!-- l&#45;&#45;j -->
<g id="edge19" class="edge">
<title>l&#45;&#45;j</title>
<path fill="none" stroke="#000000" d="M911.147,-314.7411C830.0719,-341.084 680.4521,-389.6984 599.4971,-416.0023"/>
</g>
</g>
</svg>
